rdServer.My.MyApplication
rdServer.My.MyComputer
rdServer.My.MyProject
rdServer.My.MyProject+MyWebServices
rdServer.My.MyProject+ThreadSafeObjectProvider`1
rdServer.rdScript
rdServer.rdScriptEvaluator
rdServer.AlgorithmHolder
rdServer.AlgorithmListHolder
rdServer.rdPredictionType
rdServer.rdPredictionTypeString
rdServer.rdPredictKMeans
rdServer.rdPredictLinearPenalized
rdServer.rdPredictOutliers
rdServer.rdPredictRScript
rdServer.rdAlgorithmImage
rdServer.rdR
rdServer.rdR+RunningRScript
rdServer.rdRScript
rdServer.rdRScriptFactory
rdServer.rdModelTraining
rdServer.rdModelTrainingColumnImportance
rdServer.rdModelTrainingElasticNet
rdServer.rdModelTrainingKMeans
rdServer.rdModelTrainingKnn
rdServer.rdModelTrainingLasso
rdServer.rdModelTrainingRF
rdServer.rdModelTrainingRidge
rdServer.rdModelTrainingSvm
rdServer.rdUtility
rdServer.rdUtilIntComparer
rdServer.StringUtility
rdServer.HTMLUtility
rdServer.rdUtility+NewFromJObject`1
rdServer.CompareEvaluator
rdServer.CompareItem
rdServer.CompareItem+eLogic
rdServer.CompareItem+eDataType
rdServer.CompareItem+eFilterType
rdServer.DamerauLevenshteinDistance
rdServer.DoubleMetaphone
rdServer.PhoneticSearches
rdServer.CompareFilter
rdServer.ConditionFilter
rdServer.LabelGroups
rdServer.LabelGroups+GroupInfo
rdServer.rdColumnPredictionFilter
rdServer.rdCompareColumns
rdServer.rdComparisonFilter
rdServer.rdConditionFilter
rdServer.rdContainsFilter
rdServer.rdContainsFilter+eContainType
rdServer.rdCrosstabFilter
rdServer.rdDeDuplicationFilter
rdServer.rdEndsWithFilter
rdServer.rdFilterBase
rdServer.rdFilterBase+eComparisonType
rdServer.rdForecastFilter
rdServer.rdGroupFilter
rdServer.rdGroupFilter+GroupFilterCollection
rdServer.rdGroupFilter+GroupFilter
rdServer.rdGroupFilter+GroupCollection
rdServer.rdGroupFilter+Group
rdServer.rdGroupFilter+GroupAggregateCollection
rdServer.rdGroupFilter+GroupAggregate
rdServer.rdGroupFilter+GroupRoot
rdServer.rdGroupFilter+GroupAggregate+ValueTypes
rdServer.rdJoinFilter
rdServer.rdRangeFilter
rdServer.rdRelevanceFilter
rdServer.rdReportCenterFilter
rdServer.rdSecurityFilter
rdServer.rdSortFilter
rdServer.rdStartsWithFilter
rdServer.XolapFilter
rdServer.DataLayerSchema12
rdServer.MongoDBReader
rdServer.rdBookmarkReader
rdServer.rdCacheReader
rdServer.rdConnectorReader
rdServer.rdDataServicesReader
rdServer.rdDefinitionListReader
rdServer.rdDefinitionList12
rdServer.rdDelimitedReader
rdServer.rdDirectoryReader
rdServer.rdFixedReader
rdServer.rdFixedReader+struFixedCol
rdServer.rdGoogleAppReader
rdServer.rdOlapSchemaReader
rdServer.rdPluginReader
rdServer.rdReaderParent
rdServer.rdSchedulerReader
rdServer.rdShapeReader
rdServer.rdSqlAggregateReader
rdServer.rdSqlAggregateReader+ColType
rdServer.rdSqlAggregateReader+AggregateReaderState
rdServer.rdSqlReader
rdServer.rdSqlReader+eSqlDataTypes
rdServer.rdSqlReader+_FieldInfo
rdServer.rdSqlReader+SqlCommandBuilderState
rdServer.rdSqlReader+JoinKeyList
rdServer.rdSqlReader+TestParameter
rdServer.rdStaticReader
rdServer.rdWebServiceReader
rdServer.rdXmlFileReader
rdServer.rdXmlStreamReader
rdServer.rdAggregateColumn
rdServer.rdBranchDepthColumn
rdServer.rdCalculatedColumn
rdServer.rdChangeCase
rdServer.rdChangeCase+eChangeCase
rdServer.rdColorSpectrumColumn
rdServer.rdColorRangeColumn
rdServer.rdConvertUnits
rdServer.rdConvertUnits+rdUnits
rdServer.rdDataLayerLink
rdServer.rdDataLayerPlugInCall
rdServer.rdDifferenceColumn
rdServer.rdFileColumn
rdServer.rdFormattedColumn
rdServer.rdGeocodeColumn
rdServer.rdGoogleEncodeCoordinates
rdServer.rdInsertString
rdServer.rdLookupElement
rdServer.rdLookupFilter
rdServer.LookupFieldInfo
rdServer.rdMovingAverageColumn
rdServer.rdPadString
rdServer.rdPadString+ePadString
rdServer.rdPercentOfSpread
rdServer.rdPercentOfTotalColumn
rdServer.rdRankColumn
rdServer.rdRankColumn+rdRankDouble
rdServer.rdRankColumn+rdRank_RowSort
rdServer.rdRankColumn+rdRank_RankSort
rdServer.rdRemoveColumns
rdServer.rdRenameColumns
rdServer.rdReplaceString
rdServer.rdReplaceString+eReplaceString
rdServer.rdReplaceValue
rdServer.rdReplaceValue+pcReplace
rdServer.rdRunningTotalColumn
rdServer.rdSequenceColumn
rdServer.rdSubString
rdServer.rdTimePeriodColumn
rdServer.rdTrimString
rdServer.rdTrimString+eTrimString
rdServer.rdUnpivot
rdServer.rdUnpivotValue
rdServer.rdValidateDate
rdServer.rdValidateNumber
rdServer.rdValidateNumber+eNumericType
rdServer.rdValidateNumber+eNumberFormat
rdServer.rdValidateRegEx
rdServer.rdValidateString
rdServer.EngineUtilities
rdServer.TimeoutException
rdServer.FastDateTime
rdServer.cDataLayerInfo
rdServer.rdDb
rdServer.rdXPath12
rdServer.cSummaryValue
rdServer.SummaryDef
rdServer.rdExecutionPath
rdServer.rdFileStream
rdServer.rdFileStream+eEncryption
rdServer.rdFlattener
rdServer.rdSchema
rdServer.cFieldInfo
rdServer.rdWebService12
rdServer.rdXmlJoin
rdServer.rdXmlSort
rdServer.XmlSortInstruction12
rdServer.XmlIndexEntry12
rdServer.XmlIndexItemComparer12
rdServer.rdXmlSubDataTable
rdServer.rdXmlWriter
rdServer.Discovery
rdServer.DvdJsonTemplate
rdServer.DvdJsonTemplate+Start
rdServer.DvdJsonTemplate+Connection
rdServer.DvdJsonTemplate+EndDvd
rdServer.DvdJsonTemplate+IncludeMetadata
rdServer.DvdJsonTemplate+Column
rdServer.DvdJsonTemplate+Operation
rdServer.NgpJsonSerializer
rdServer.NgpVisualization
rdServer.rdNgpProxyPageHandler
rdServer.rdNGPRestAPI
rdServer.SuperWidget
rdServer.TableVisualConfigTemplate
rdServer.TableVisualConfigTemplate+ConfigStyle
rdServer.ThinkspaceColumnFormat
rdServer.ThinkspaceConfig
rdServer.ThinkspaceConfig+ThinkSpaceStyle
rdServer.ThinkspaceConfig+EventHandlers
rdServer.ThinkspaceConfig+Gallery
rdServer.ThinkspaceConfig+Update
rdServer.ThinkspaceConfig+Save
rdServer.ThinkspaceConfig+ThinkSpaceControls
rdServer.ThinkspaceConfig+AtStyle
rdServer.ThinkspaceConfig+At
rdServer.ThinkspaceConfig+VbStyle
rdServer.ThinkspaceConfig+VbLimitation
rdServer.ThinkspaceConfig+Zoom
rdServer.ThinkspaceConfig+XaxisTitle
rdServer.ThinkspaceConfig+XaxisLabels
rdServer.ThinkspaceConfig+XAxi
rdServer.ThinkspaceConfig+VbVisualization
rdServer.ThinkspaceConfig+Vb
rdServer.ThinkspaceConfig+ThinkspaceChartCreation
rdServer.ThinkspaceConfig+ThinkSpaceComponents
rdServer.ThinkspaceConfig+Column
rdServer.ThinkspaceConfig+ColumnControls
rdServer.ThinkspaceConfig+ThinkSpacePillContainer
rdServer.ThinkspaceConfig+ActiveHeaderConfig
rdServer.rdElementSeekerLogic
rdServer.rdElementSeekerModel
rdServer.AggregateEnum
rdServer.rdEnumUtility
rdServer.BalloonBar
rdServer.BulletGraph
rdServer.Range
rdServer.Range+RangeComparer
rdServer.Tick
rdServer.Highcharts.Animation
rdServer.Highcharts.AxisEvents
rdServer.Highcharts.AxisLabels
rdServer.Highcharts.AxisTitle
rdServer.Highcharts.ButtonOptions
rdServer.Highcharts.Chart
rdServer.Highcharts.ChartEvents
rdServer.Highcharts.ChartLabelItem
rdServer.Highcharts.ChartLabels
rdServer.Highcharts.ChartOptions
rdServer.Highcharts.ColorStop
rdServer.Highcharts.ContextButton
rdServer.Highcharts.Credits
rdServer.Highcharts.CSSObject
rdServer.Highcharts.ExtendedCSSObject
rdServer.Highcharts.Required
rdServer.Highcharts.ForceNullOutput
rdServer.Highcharts.JsonIgnore
rdServer.Highcharts.DataLabels
rdServer.Highcharts.DateTimeLabelFormats
rdServer.Highcharts.DrillBackButton
rdServer.Highcharts.Exporting
rdServer.Highcharts.GuageDial
rdServer.Highcharts.GuagePivot
rdServer.Highcharts.Lang
rdServer.Highcharts.Legend
rdServer.Highcharts.LegendNavigation
rdServer.Highcharts.LegendTitle
rdServer.Highcharts.Loading
rdServer.Highcharts.Marker
rdServer.Highcharts.MarkerState
rdServer.Highcharts.MarkerStates
rdServer.Highcharts.MenuItem
rdServer.Highcharts.MouseEvents
rdServer.Highcharts.Navigation
rdServer.Highcharts.NoData
rdServer.Highcharts.NumFormatInfo
rdServer.FrameColorValue
rdServer.FrameStyle
rdServer.Options3D
rdServer.Highcharts.Pane
rdServer.Highcharts.PaneBackground
rdServer.Highcharts.PlotBand
rdServer.Highcharts.PlotLabel
rdServer.Highcharts.PlotLine
rdServer.Highcharts.PlotMarkerBase
rdServer.Highcharts.AreaOptions
rdServer.Highcharts.AreaRangeOptions
rdServer.Highcharts.AreaSplineOptions
rdServer.Highcharts.AreaSplineRangeOptions
rdServer.Highcharts.BarOptions
rdServer.Highcharts.BoxplotOptions
rdServer.Highcharts.BubbleOptions
rdServer.Highcharts.ColumnOptions
rdServer.Highcharts.ColumnRangeOptions
rdServer.Highcharts.FunnelOptions
rdServer.Highcharts.GaugeOptions
rdServer.Highcharts.LineOptions
rdServer.Highcharts.PieOptions
rdServer.Highcharts.PlotOptions
rdServer.Highcharts.PlotSeriesEvents
rdServer.Highcharts.PlotSeriesOptions
rdServer.Highcharts.ScatterOptions
rdServer.Highcharts.SplineOptions
rdServer.Highcharts.WaterfallOptions
rdServer.Highcharts.WhiskersOptions
rdServer.Highcharts.Position
rdServer.Highcharts.Quicktip
rdServer.Highcharts.QuicktipRow
rdServer.Highcharts.QuicktipStyle
rdServer.Highcharts.QuicktipTitleStyle
rdServer.Highcharts.QuicktipDescriptionStyle
rdServer.Highcharts.ResetZoomButton
rdServer.ResetZoomButtonState
rdServer.ResetZoomButtonStates
rdServer.ResetZoomButtonStyle
rdServer.ResetZoomButtonTheme
rdServer.Highcharts.AngularGaugeSeries
rdServer.ArcGaugeSeries
rdServer.Highcharts.AreaRangeSeries
rdServer.Highcharts.AreaSeries
rdServer.Highcharts.AreaSplineRangeSeries
rdServer.Highcharts.AreaSplineSeries
rdServer.Highcharts.BalloonGaugeSeries
rdServer.Highcharts.BarSeries
rdServer.Highcharts.BoxplotSeries
rdServer.Highcharts.ITransparentSeries
rdServer.Highcharts.BubbleSeries
rdServer.Highcharts.BulletGaugeSeries
rdServer.Highcharts.CartesianHeatmap
rdServer.Highcharts.ColorAxis
rdServer.Highcharts.ColumnRangeSeries
rdServer.Highcharts.ColumnSeries
rdServer.Highcharts.DataColumnInfo
rdServer.Highcharts.DataInfo
rdServer.Highcharts.FunnelSeries
rdServer.Highcharts.GaugeSeries
rdServer.Highcharts.IDataGrouping
rdServer.Highcharts.IMultiColorSeries
rdServer.Highcharts.LineSeries
rdServer.Highcharts.PieSeries
rdServer.Highcharts.ScatterSeries
rdServer.Highcharts.SeriesData
rdServer.Highcharts.SeriesDataBoxPlot
rdServer.Highcharts.SeriesDataBoxPlotX
rdServer.Highcharts.SeriesDataLowHigh
rdServer.Highcharts.SeriesDataTreemapCell
rdServer.Highcharts.SeriesDataTreemapCellDrill
rdServer.Highcharts.SeriesDataType
rdServer.Highcharts.SeriesDataWaterfall
rdServer.Highcharts.SeriesDataXLowHigh
rdServer.Highcharts.SeriesDataXY
rdServer.Highcharts.SeriesDataXYDrill
rdServer.Highcharts.SeriesDataXYZ
rdServer.Highcharts.SeriesDataY
rdServer.Highcharts.SeriesDataYDrill
rdServer.Highcharts.SeriesDataYZ
rdServer.Highcharts.SeriesEventData
rdServer.Highcharts.SeriesEvents
rdServer.Highcharts.SeriesOptions
rdServer.Highcharts.SplineSeries
rdServer.Highcharts.TreemapSeries
rdServer.Highcharts.TrendLineSeries
rdServer.Highcharts.WaterfallSeries
rdServer.Highcharts.WhiskersSeries
rdServer.Highcharts.SeriesPoint
rdServer.Highcharts.SeriesPointEvents
rdServer.Highcharts.ChartSelection
rdServer.Highcharts.SeriesState
rdServer.Highcharts.SeriesStates
rdServer.Highcharts.SeriesTooltip
rdServer.Highcharts.StackLabels
rdServer.Highcharts.SubTitle
rdServer.Highcharts.Theme
rdServer.Title
rdServer.Highcharts.Title
rdServer.Highcharts.Tooltip
rdServer.Highcharts.TreemapTooltip
rdServer.Highcharts.xAxis
rdServer.Highcharts.yAxis
rdServer.Highcharts.API.zAxis
rdServer.Highcharts.Attributes.IgnoreXPathAttribute
rdServer.Highcharts.Attributes.XPathAttribute
rdServer.ChartCanvasCrosstab
rdServer.ChartCanvasOlap
rdServer.ChartDrilledToState
rdServer.ChartDrillTo
rdServer.ChartDrillToColumn
rdServer.ChartDrillToDatalayerHelper
rdServer.ChartDrillInDatalayerHelperActiveSql
rdServer.rdDateType
rdServer.ColumnTypeQualifier
rdServer.DataGrouping
rdServer.DataLayerWrapper
rdServer.Highcharts.ExportingButtons
rdServer.GaugeToChartCanvasTranslator
rdServer.Highcharts.Helpers.AttributeHelper
rdServer.Highcharts.IGroupStyle
rdServer.Highcharts.JsonSerializer
rdServer.Highcharts.JsonWriter
rdServer.Highcharts.PyramidSeries
rdServer.rdHighCharts
rdServer.Highcharts.RenderMode
rdServer.SeriesDataTreemapGroupColumn
rdServer.Highcharts.TreemapCellStyle
rdServer.lgxBarGauge
rdServer.BarGaugeScale
rdServer.lgxBarGauge+ImageFormat
rdServer.lgxBarGauge+BarStyle
rdServer.lgxEncryption
rdServer.Label
rdServer.Labels
rdServer.lgxIndicatorGauge
rdServer.ColorValue
rdServer.ColorValues
rdServer.lgxIndicatorGauge+ImageFormat
rdServer.lgxIndicatorGauge+IndicatorStyle
rdServer.LogiProducts
rdServer.lgxLicense10
rdServer.LicenseException
rdServer.rdUserTrackingFileState
rdServer.rdUserTracking
rdServer.rdUserTrackingVerificationCode
rdServer.lgxLicense10+ReasonItFailed
rdServer.lgxNeedleGauge
rdServer.NeedleGaugeScale
rdServer.Ring
rdServer.Rings
rdServer.lgxNeedleGauge+ImageFormat
rdServer.lgxNeedleGauge+NeedleValueInfo
rdServer.LeafletMapLayer
rdServer.rdLeafletMap
rdServer.rdLeafletMap+MagicTileServer
rdServer.rdLeafletMap+MagicTileServerMap
rdServer.DataLayerWorkerState
rdServer.ProcessDashboardPanelWorkerState
rdServer.ProcessElementWorkerState
rdServer.Worker
rdServer.WorkerStateBase
rdServer.My.MySettings
rdServer.My.MySettingsProperty
rdServer.rdAddPanelsGallery
rdServer.rdAjax
rdServer.rdAnalysisChart
rdServer.rdAnalysisCrosstab
rdServer.rdAnalysisFilter
rdServer.rdAnalysisGrid10
rdServer.rdAnalysisGrid10+AjaxCommand
rdServer.rdAnimatedChart
rdServer.rdBD
rdServer.rdBookmark
rdServer.rdBookmarkOrganizer
rdServer.rdBookmarkXmlDocument
rdServer.BrowserBornRenderType
rdServer.rdBrowserBornElementRenderer
rdServer.ChartBuilder
rdServer.ImageMapReturn
rdServer.rdChartGrahics
rdServer.ChartBuilder+ChartStyleInfo
rdServer.rdChartGrid
rdServer.rdCleanup
rdServer.rdCsv
rdServer.rdDashboard
rdServer.rdDashboardEditAgViz
rdServer.rdDataHubUtil
rdServer.rdDataHubUtil+ProjectStatus
rdServer.rdDataHubUtil+InitialDisplay
rdServer.rdDataHubUtil+ColumnClassDetail
rdServer.rdDataProvider
rdServer.rdDb9
rdServer.rdXmlWriter9
rdServer.rdXmlMode
rdServer.rdXmlReader9
rdServer.rdRankDouble9
rdServer.rdRank_RowSort9
rdServer.rdRank_RankSort9
rdServer.rdXmlSortDirection
rdServer.rdXmlSortDataType
rdServer.rdXmlSort9
rdServer.rdXmlSort2_9
rdServer.XmlSortInstruction
rdServer.XmlIndexEntry
rdServer.XmlIndexItemComparer
rdServer.rdXmlJoin9
rdServer.rdXmlProcessor9
rdServer.rdXmlCrossTab9
rdServer.DataLayerSchema
rdServer.GroupFilterCollection9
rdServer.GroupAggregate9
rdServer.GroupAggregateCollection9
rdServer.Group9
rdServer.GroupCollection9
rdServer.GroupFilter9
rdServer.struGroupRoot9
rdServer.struSummary9
rdServer.struRowInfo9
rdServer.struSummary2_9
rdServer.struCrossTab9
rdServer.struSummaryColumn9
rdServer.struSummaryRow9
rdServer.struDataLayerInfo9
rdServer.struAttributeName9
rdServer.struMergeIndex9
rdServer.rdXmlSubDataTable9
rdServer.struField9
rdServer.rdSchema9
rdServer.rdDataPaging9
rdServer.rdStreamData9
rdServer.cDbField9
rdServer.rdCSV2_9
rdServer.rdFixedFormat9
rdServer.rdLookup9
rdServer.rdDefinitionList9
rdServer.rdXPath9
rdServer.XslFoFieldInfo
rdServer.rdDb9+SummaryDef
rdServer.GroupAggregate9+ValueTypes
rdServer.rdFixedFormat9+struFixedCol
rdServer.rdLookup9+_eExecuteType
rdServer.rdDebug
rdServer.PerfCounter
rdServer.rdDebugDownload
rdServer.rdDownloadSecPageHandler
rdServer.rdEventLogging
rdServer.rdEventLogging+EventSequence
rdServer.rdRegressionType
rdServer.rdTimeSeriesIncrement
rdServer.rdForecastType
rdServer.rdForecast
rdServer.rdFusionMap
rdServer.SliderImage
rdServer.rdGoogleMap
rdServer.PolylineEncoder
rdServer.Track
rdServer.Trackpoint
rdServer.rdGoogleMap+GoogleMapApi
rdServer.rdGroupDrillthrough
rdServer.rdHeatmapChart
rdServer.rdHeatmapChartGroupColumn
rdServer.rdHeatmapChartCell
rdServer.rdHeatmapLabel
rdServer.rdHeatmapLabelValue
rdServer.rdHeatmapDrawingStyles
rdServer.rdHeatmapDrawMode
rdServer.rdOldHeatmapConverter
rdServer.rdIdv
rdServer.rdIntelligenceReporting
rdServer.rdInternational
rdServer.rdInternational+CultureType
rdServer.rdIPAddressValidator
rdServer.Javascripts
rdServer.rdJavaSessionCopying
rdServer.rdJSON
rdServer.rdJSON+NewFromJObject`1
rdServer.rdLocalization
rdServer.rdLocalizationStrings
rdServer.DTFormatInfo
rdServer.NumFormatInfo
rdServer.rdPhantomjsWrapper
rdServer.rdPlugin
rdServer.rdPluginBridge
rdServer.ActionProcessor
rdServer.rdProcedure
rdServer.rdDirectoryData
rdServer.rdProcedure+ProcedureUpdatedEventHandler
rdServer.rdSendMail
rdServer.MailAuthenticator
rdServer.rdProcessTarget
rdServer.rdTask
rdServer.rdTask+TaskState
rdServer.rdPromptPage
rdServer.rdQueryBuilder
rdServer.rdQuicktip
rdServer.rdRTermBridge
rdServer.rdConcurrentQueue`1
rdServer.rdWorkerData
rdServer.rdProcessWorker
rdServer.rdWorkersHolder
rdServer.rdSchedule
rdServer.rdSecurity
rdServer.rdSecurityUtil
rdServer.rdSecureKeyAuthorization
rdServer.rdSession
rdServer.DataBuilder
rdServer.ResponseBuilder
rdServer.PageBuilder
rdServer.JsonColumn
rdServer.rdPdfUtil
rdServer.rdNativeExcelUtil
rdServer.PageBuilder+TargetType
rdServer.PageBuilder+xslValueType
rdServer.PageBuilder+RowType
rdServer.rdHtmlFixup
rdServer.rdServerHtmlStreamer
rdServer.BinarySearch
rdServer.rdShellCommand
rdServer.rdShellCommand+rdRunningShellCommand
rdServer.rdShellCommand+StreamState
rdServer.rdSparkline
rdServer.rdState
rdServer.rdSupportFile
rdServer.Tokenizer
rdServer.rdState+EncodingType
rdServer.rdState+InitXml
rdServer.rdState+TestParameter
rdServer.rdSupportFile+SupportFileType
rdServer.Tokenizer+Token
rdServer.rdTemplate
rdServer.rdThemeEditor
rdServer.rdTrellisChart
rdServer.rdTrellisChart+rdTrellisData
rdServer.rdTrellisChart+rdTrellisChartCell
rdServer.rdValidateUtf8Url
rdServer.rdWebService
rdServer.WidgetBuilder
rdServer.rdXslExtension
rdServer.rdZoomChart
rdServer.ControlBase
rdServer.ImageControl
rdServer.LabelControl
rdServer.LinkControl
rdServer.OldReportAuthorImport
rdServer.PdfButtonControl
rdServer.ReportAuthor
rdServer.RowControl
rdServer.SpaceControl
rdServer.VisualizationControl
rdServer.rdColumnInfo
rdServer.rdColumnMap
rdServer.rdSortedColumn
rdServer.rdSorting
rdServer.SalesforcePartner.SforceService
rdServer.SalesforcePartner.CallOptions
rdServer.SalesforcePartner.SendEmailError
rdServer.SalesforcePartner.StatusCode
rdServer.SalesforcePartner.SendEmailResult
rdServer.SalesforcePartner.Email
rdServer.SalesforcePartner.EmailPriority
rdServer.SalesforcePartner.SingleEmailMessage
rdServer.SalesforcePartner.MassEmailMessage
rdServer.SalesforcePartner.ResetPasswordResult
rdServer.SalesforcePartner.SetPasswordResult
rdServer.SalesforcePartner.GetServerTimestampResult
rdServer.SalesforcePartner.SearchRecord
rdServer.SalesforcePartner.sObject
rdServer.SalesforcePartner.SearchResult
rdServer.SalesforcePartner.QueryResult
rdServer.SalesforcePartner.GetUpdatedResult
rdServer.SalesforcePartner.DeletedRecord
rdServer.SalesforcePartner.GetDeletedResult
rdServer.SalesforcePartner.LeadConvertResult
rdServer.SalesforcePartner.Error
rdServer.SalesforcePartner.LeadConvert
rdServer.SalesforcePartner.ProcessResult
rdServer.SalesforcePartner.ProcessRequest
rdServer.SalesforcePartner.ProcessWorkitemRequest
rdServer.SalesforcePartner.ProcessSubmitRequest
rdServer.SalesforcePartner.UndeleteResult
rdServer.SalesforcePartner.DeleteResult
rdServer.SalesforcePartner.MergeResult
rdServer.SalesforcePartner.MergeRequest
rdServer.SalesforcePartner.UpsertResult
rdServer.SalesforcePartner.SaveResult
rdServer.SalesforcePartner.DescribeTab
rdServer.SalesforcePartner.DescribeTabSetResult
rdServer.SalesforcePartner.DescribeSoftphoneLayoutItem
rdServer.SalesforcePartner.DescribeSoftphoneLayoutSection
rdServer.SalesforcePartner.DescribeSoftphoneLayoutInfoField
rdServer.SalesforcePartner.DescribeSoftphoneLayoutCallType
rdServer.SalesforcePartner.DescribeSoftphoneLayoutResult
rdServer.SalesforcePartner.PicklistForRecordType
rdServer.SalesforcePartner.PicklistEntry
rdServer.SalesforcePartner.RecordTypeMapping
rdServer.SalesforcePartner.RelatedListSort
rdServer.SalesforcePartner.RelatedListColumn
rdServer.SalesforcePartner.RelatedList
rdServer.SalesforcePartner.DescribeLayoutComponent
rdServer.SalesforcePartner.layoutComponentType
rdServer.SalesforcePartner.DescribeLayoutItem
rdServer.SalesforcePartner.DescribeLayoutRow
rdServer.SalesforcePartner.DescribeLayoutSection
rdServer.SalesforcePartner.DescribeLayout
rdServer.SalesforcePartner.DescribeLayoutResult
rdServer.SalesforcePartner.DescribeGlobalResult
rdServer.SalesforcePartner.RecordTypeInfo
rdServer.SalesforcePartner.Field
rdServer.SalesforcePartner.soapType
rdServer.SalesforcePartner.fieldType
rdServer.SalesforcePartner.ChildRelationship
rdServer.SalesforcePartner.DescribeSObjectResult
rdServer.SalesforcePartner.GetUserInfoResult
rdServer.SalesforcePartner.LoginResult
rdServer.SalesforcePartner.SessionHeader
rdServer.SalesforcePartner.LoginScopeHeader
rdServer.SalesforcePartner.UserTerritoryDeleteHeader
rdServer.SalesforcePartner.EmailHeader
rdServer.SalesforcePartner.QueryOptions
rdServer.SalesforcePartner.MruHeader
rdServer.SalesforcePartner.AssignmentRuleHeader
rdServer.SalesforcePartner.loginCompletedEventHandler
rdServer.SalesforcePartner.loginCompletedEventArgs
rdServer.SalesforcePartner.describeSObjectCompletedEventHandler
rdServer.SalesforcePartner.describeSObjectCompletedEventArgs
rdServer.SalesforcePartner.describeSObjectsCompletedEventHandler
rdServer.SalesforcePartner.describeSObjectsCompletedEventArgs
rdServer.SalesforcePartner.describeGlobalCompletedEventHandler
rdServer.SalesforcePartner.describeGlobalCompletedEventArgs
rdServer.SalesforcePartner.describeLayoutCompletedEventHandler
rdServer.SalesforcePartner.describeLayoutCompletedEventArgs
rdServer.SalesforcePartner.describeSoftphoneLayoutCompletedEventHandler
rdServer.SalesforcePartner.describeSoftphoneLayoutCompletedEventArgs
rdServer.SalesforcePartner.describeTabsCompletedEventHandler
rdServer.SalesforcePartner.describeTabsCompletedEventArgs
rdServer.SalesforcePartner.createCompletedEventHandler
rdServer.SalesforcePartner.createCompletedEventArgs
rdServer.SalesforcePartner.updateCompletedEventHandler
rdServer.SalesforcePartner.updateCompletedEventArgs
rdServer.SalesforcePartner.upsertCompletedEventHandler
rdServer.SalesforcePartner.upsertCompletedEventArgs
rdServer.SalesforcePartner.mergeCompletedEventHandler
rdServer.SalesforcePartner.mergeCompletedEventArgs
rdServer.SalesforcePartner.deleteCompletedEventHandler
rdServer.SalesforcePartner.deleteCompletedEventArgs
rdServer.SalesforcePartner.undeleteCompletedEventHandler
rdServer.SalesforcePartner.undeleteCompletedEventArgs
rdServer.SalesforcePartner.retrieveCompletedEventHandler
rdServer.SalesforcePartner.retrieveCompletedEventArgs
rdServer.SalesforcePartner.processCompletedEventHandler
rdServer.SalesforcePartner.processCompletedEventArgs
rdServer.SalesforcePartner.convertLeadCompletedEventHandler
rdServer.SalesforcePartner.convertLeadCompletedEventArgs
rdServer.SalesforcePartner.getDeletedCompletedEventHandler
rdServer.SalesforcePartner.getDeletedCompletedEventArgs
rdServer.SalesforcePartner.getUpdatedCompletedEventHandler
rdServer.SalesforcePartner.getUpdatedCompletedEventArgs
rdServer.SalesforcePartner.queryCompletedEventHandler
rdServer.SalesforcePartner.queryCompletedEventArgs
rdServer.SalesforcePartner.queryAllCompletedEventHandler
rdServer.SalesforcePartner.queryAllCompletedEventArgs
rdServer.SalesforcePartner.queryMoreCompletedEventHandler
rdServer.SalesforcePartner.queryMoreCompletedEventArgs
rdServer.SalesforcePartner.searchCompletedEventHandler
rdServer.SalesforcePartner.searchCompletedEventArgs
rdServer.SalesforcePartner.getServerTimestampCompletedEventHandler
rdServer.SalesforcePartner.getServerTimestampCompletedEventArgs
rdServer.SalesforcePartner.setPasswordCompletedEventHandler
rdServer.SalesforcePartner.setPasswordCompletedEventArgs
rdServer.SalesforcePartner.resetPasswordCompletedEventHandler
rdServer.SalesforcePartner.resetPasswordCompletedEventArgs
rdServer.SalesforcePartner.getUserInfoCompletedEventHandler
rdServer.SalesforcePartner.getUserInfoCompletedEventArgs
rdServer.SalesforcePartner.sendEmailCompletedEventHandler
rdServer.SalesforcePartner.sendEmailCompletedEventArgs
rdServer.PageBuilder+_Closure$__1
